%YAML 1.1
%TAG !u! tag:unity3d.com,2011:
--- !u!1 &6672277133818884010
GameObject:
  m_ObjectHideFlags: 0
  m_CorrespondingSourceObject: {fileID: 0}
  m_PrefabInstance: {fileID: 0}
  m_PrefabAsset: {fileID: 0}
  serializedVersion: 6
  m_Component:
  - component: {fileID: 5041141267590489835}
  - component: {fileID: 2749781926027281559}
  m_Layer: 0
  m_Name: _WeaponHolder
  m_TagString: WeaponHolder
  m_Icon: {fileID: 0}
  m_NavMeshLayer: 0
  m_StaticEditorFlags: 0
  m_IsActive: 1
--- !u!4 &5041141267590489835
Transform:
  m_ObjectHideFlags: 0
  m_CorrespondingSourceObject: {fileID: 0}
  m_PrefabInstance: {fileID: 0}
  m_PrefabAsset: {fileID: 0}
  m_GameObject: {fileID: 6672277133818884010}
  m_LocalRotation: {x: 0, y: 0, z: 0, w: 1}
  m_LocalPosition: {x: 0, y: 0, z: 0}
  m_LocalScale: {x: 1, y: 1, z: 1}
  m_Children:
  - {fileID: 1147715259955449246}
  m_Father: {fileID: 0}
  m_RootOrder: 0
  m_LocalEulerAnglesHint: {x: 0, y: 0, z: 0}
--- !u!114 &2749781926027281559
MonoBehaviour:
  m_ObjectHideFlags: 0
  m_CorrespondingSourceObject: {fileID: 0}
  m_PrefabInstance: {fileID: 0}
  m_PrefabAsset: {fileID: 0}
  m_GameObject: {fileID: 6672277133818884010}
  m_Enabled: 1
  m_EditorHideFlags: 0
  m_Script: {fileID: 11500000, guid: 2bae5608fbc0b4747aec9b2168f49d0e, type: 3}
  m_Name: 
  m_EditorClassIdentifier: 
  selectedWeapon: 0
--- !u!1001 &7598066772977333049
PrefabInstance:
  m_ObjectHideFlags: 0
  serializedVersion: 2
  m_Modification:
    m_TransformParent: {fileID: 5041141267590489835}
    m_Modifications:
    - target: {fileID: 8344639866506961667, guid: 9e511c68e43169f4ea91db5687241d2a,
        type: 3}
      propertyPath: m_Name
      value: FireballLauncher
      objectReference: {fileID: 0}
    - target: {fileID: 7393856757584608935, guid: 9e511c68e43169f4ea91db5687241d2a,
        type: 3}
      propertyPath: m_LocalPosition.x
      value: 0
      objectReference: {fileID: 0}
    - target: {fileID: 7393856757584608935, guid: 9e511c68e43169f4ea91db5687241d2a,
        type: 3}
      propertyPath: m_LocalPosition.y
      value: 0
      objectReference: {fileID: 0}
    - target: {fileID: 7393856757584608935, guid: 9e511c68e43169f4ea91db5687241d2a,
        type: 3}
      propertyPath: m_LocalPosition.z
      value: 0
      objectReference: {fileID: 0}
    - target: {fileID: 7393856757584608935, guid: 9e511c68e43169f4ea91db5687241d2a,
        type: 3}
      propertyPath: m_LocalRotation.x
      value: 0
      objectReference: {fileID: 0}
    - target: {fileID: 7393856757584608935, guid: 9e511c68e43169f4ea91db5687241d2a,
        type: 3}
      propertyPath: m_LocalRotation.y
      value: 0
      objectReference: {fileID: 0}
    - target: {fileID: 7393856757584608935, guid: 9e511c68e43169f4ea91db5687241d2a,
        type: 3}
      propertyPath: m_LocalRotation.z
      value: 0
      objectReference: {fileID: 0}
    - target: {fileID: 7393856757584608935, guid: 9e511c68e43169f4ea91db5687241d2a,
        type: 3}
      propertyPath: m_LocalRotation.w
      value: 1
      objectReference: {fileID: 0}
    - target: {fileID: 7393856757584608935, guid: 9e511c68e43169f4ea91db5687241d2a,
        type: 3}
      propertyPath: m_RootOrder
      value: 0
      objectReference: {fileID: 0}
    - target: {fileID: 7393856757584608935, guid: 9e511c68e43169f4ea91db5687241d2a,
        type: 3}
      propertyPath: m_LocalEulerAnglesHint.x
      value: 0
      objectReference: {fileID: 0}
    - target: {fileID: 7393856757584608935, guid: 9e511c68e43169f4ea91db5687241d2a,
        type: 3}
      propertyPath: m_LocalEulerAnglesHint.y
      value: 0
      objectReference: {fileID: 0}
    - target: {fileID: 7393856757584608935, guid: 9e511c68e43169f4ea91db5687241d2a,
        type: 3}
      propertyPath: m_LocalEulerAnglesHint.z
      value: 0
      objectReference: {fileID: 0}
    - target: {fileID: 5967186194196153703, guid: 9e511c68e43169f4ea91db5687241d2a,
        type: 3}
      propertyPath: m_LocalPosition.x
      value: 0.549
      objectReference: {fileID: 0}
    - target: {fileID: 5967186194196153703, guid: 9e511c68e43169f4ea91db5687241d2a,
        type: 3}
      propertyPath: m_LocalPosition.y
      value: 0.526
      objectReference: {fileID: 0}
    - target: {fileID: 5967186194196153703, guid: 9e511c68e43169f4ea91db5687241d2a,
        type: 3}
      propertyPath: m_LocalPosition.z
      value: 0.55
      objectReference: {fileID: 0}
    m_RemovedComponents: []
  m_SourcePrefab: {fileID: 100100000, guid: 9e511c68e43169f4ea91db5687241d2a, type: 3}
--- !u!4 &1147715259955449246 stripped
Transform:
  m_CorrespondingSourceObject: {fileID: 7393856757584608935, guid: 9e511c68e43169f4ea91db5687241d2a,
    type: 3}
  m_PrefabInstance: {fileID: 7598066772977333049}
  m_PrefabAsset: {fileID: 0}
